main.c:105:6:print	16	static
main.c:69:6:printSRAM	64	static
main.c:111:6:counterUp	8	static
main.c:117:6:enterStandby	8	static,ignoring_inline_asm
main.c:54:6:printStep	8	static
main.c:134:6:SystemClock_Config	96	static,ignoring_inline_asm
main.c:173:6:PWR_Init	16	static
main.c:180:6:RTC_Init	8	static,ignoring_inline_asm
main.c:196:6:UART_Init	8	static,ignoring_inline_asm
main.c:15:5:main	8	static
main.c:214:6:Error_Handler	0	static,ignoring_inline_asm
