stm32f4xx_hal_msp.c:27:6:HAL_MspInit	8	static
stm32f4xx_hal_msp.c:41:6:HAL_RTC_MspInit	104	static
stm32f4xx_hal_msp.c:68:6:HAL_RTC_MspDeInit	0	static
stm32f4xx_hal_msp.c:84:6:HAL_UART_MspInit	40	static
stm32f4xx_hal_msp.c:113:6:HAL_UART_MspDeInit	0	static
