Sum;Avg;Min
0.0;0.0;0.0
0.0;0.0;0.0
140.19299114684597;0.13690721791684177;79.88395176573924
173.9143690099266;0.16983825098625643;97.15651461196586
187.72723763143279;0.18332738049944608;108.9951925758106
179.67067012425292;0.17545963879321574;105.53701196351734
191.1914392507087;0.1867103898932702;111.82919277858672
184.88003638824458;0.1805469105353951;105.24637929916163
174.5782368540243;0.17048655942775812;97.62670166916539
163.31027083396734;0.15948268636129623;91.83441517711569
178.1097615446631;0.17393531400846005;98.17871419801952
198.36230206389496;0.19371318560927242;111.68027769203894
178.72245044982253;0.17453364301740482;100.49245232996573
182.1676227000032;0.17789806904297187;102.51606676314658
178.2809300592889;0.1741024707610243;97.42363513785888
191.8684775892372;0.18737156014573944;109.53114530223307
211.90872719203693;0.20694211639847357;121.66058051412513
181.9110867038926;0.17764754560927012;98.87670791730065
202.5787550470989;0.19783081547568251;118.22321503839741
194.7931963478188;0.1902277308084168;109.79984511444387
196.39442213150602;0.19179142786279885;113.86619204090894
197.01035769062142;0.19239292743224748;112.07568194009247
194.19621651062968;0.1896447426861618;111.17403108886032
188.88393215443395;0.1844569649945644;101.51671839237174
174.74550533077408;0.17064990754958406;100.49644084914212
192.55432702812257;0.18804133498840095;109.95280033421926
178.7716670293109;0.17458170608331142;100.13349805220204
191.6366989624386;0.18714521383050645;110.11267738428604
196.59274800569787;0.19198510547431433;112.09429285614337
178.07226884827435;0.17389870004714292;94.96690840316992
192.28444676979228;0.18777778004862528;108.33268221636673
182.87873765178267;0.17859251723806902;104.9661708282713
175.4554315285349;0.17134319485208485;95.33476398397491
183.83311103051693;0.1795245224907392;111.28477734345022
161.06507389690964;0.15729011122745082;89.44734902132711
180.57008817766635;0.1763379767360023;101.44299660344018
188.94698248306452;0.1845185375811177;107.42852699843789
173.66083477876842;0.16959065896364103;98.68945651377373
193.32540439481292;0.1887943402293095;109.4759668770927
182.77075448160923;0.17848706492344651;105.56291495055072
178.16147589096204;0.17398581629976761;96.82530462959207
163.2850374294103;0.1594580443646585;90.94620845244417
207.46199434677922;0.20259960385427658;120.60545695002146
195.5431775127721;0.1909601342898165;112.22325639860671
168.84502034571776;0.164887715181365;93.03408699860361
192.52187661872446;0.1880096451354731;111.5882584946823
186.19437047163396;0.18183043991370504;106.80820461486982
181.99687552429572;0.17773132375419504;102.56729575811875
180.5404889958073;0.17630907128496806;104.8158211326555
175.42984878320556;0.17131821170234918;100.80052191716656
181.38428257175948;0.17713308844898387;99.82115787532172
192.51666819524547;0.1880045587844194;107.89566680780821
192.25785037712774;0.1877518070089138;112.33147063716004
164.20049393401004;0.16035204485743168;87.99208152205934
167.48266608742617;0.16355729110100212;94.69292121248992
178.30936903485753;0.17413024319810305;98.86300960208827
183.07302698276177;0.1787822529128533;105.22794618103163
181.84835869431907;0.17758628778742097;105.66724985307538
183.12205035813992;0.178830127302871;106.26597789450749
161.75317410840233;0.15796208409023665;88.48330211363762
182.94382945038777;0.1786560834476443;101.12739711708048
184.42544873091072;0.18010297727628;104.33457918507301
187.81026924752234;0.18340846606203354;108.73750904317562
194.00250685120716;0.189455573096882;111.59565045446539
183.24086186337206;0.17894615416344928;99.5175858556533
174.07489714411054;0.16999501674229545;96.11055885205857
192.10564900558205;0.18760317285701372;106.96191656513894
207.56198967757373;0.2026972555445056;119.15974972017254
185.30067266494513;0.18095768814936047;107.76214216977272
200.39747090150334;0.19570065517724936;114.19918734856954
170.47572262339528;0.16648019787440946;94.91690073530775
188.71820686905443;0.18429512389556096;106.71279952672506
177.39563133706048;0.17323792122759812;98.66380328291564
186.8185218218531;0.18243996271665341;106.08997534174028
194.86440807006676;0.19029727350592457;110.05984119144837
165.18342389598337;0.16131193739842126;91.79400928511754
193.47095251312942;0.18893647706360295;109.98478097059987
212.3162340076422;0.2073400722730881;119.24814741743957
195.14837924171167;0.19057458910323405;110.50803410926368
175.88032229795851;0.1717581272441001;100.45162275143971
184.08445661134368;0.17976997715951532;102.77342039194995
177.94274529323636;0.17377221220042613;101.6653595452127
180.8828962361068;0.17664345335557305;100.43300027216672
151.1622889723372;0.14761942282454804;83.98322794494536
192.6507349461334;0.1881354833458334;110.90988489038006
170.8270338278076;0.16682327522246837;96.39209743736596
170.1764543287062;0.16618794368037715;96.81618063702709
172.31216870370986;0.16827360224971666;98.6539576062864
199.69073152538076;0.19501048000525464;114.69894961474729
184.04257615567423;0.1797290782770256;101.65822120022665
212.0910967778907;0.20712021169715888;126.65031069277997
183.67178692726517;0.1793669794211574;105.79727765432725
177.13937896913657;0.17298767477454743;99.11031583448305
197.94043939123375;0.1933012103430017;111.47645448050437
204.94437351689103;0.2001409897625889;123.73428864867138
184.39044290129698;0.18006879189579783;106.87610040183958
179.5123132736294;0.1753049934312787;100.45690239759605
177.50219388397107;0.1733419862148155;98.93619785440055
185.35525261205441;0.1810109888789594;100.38860135803375
192.29592207149676;0.18778898639794606;107.90503425524176
171.92518834195394;0.1678956917401894;94.35158513204608
172.207004597803;0.168170902927542;95.70762867071359
199.1816655175095;0.19451334523194286;114.0101795517417
176.33932495581593;0.172206372027164;99.58868199362236
178.99907522304323;0.17480378439750316;102.07081734943726
181.58158688745348;0.1773257684447788;100.3609143688042
170.475997408748;0.16648046621948046;92.44272540100414
178.84963767119814;0.17465784928827943;102.1808179943607
211.16650444687022;0.2062172894988967;118.19136205248691
179.505398418614;0.17529824064317773;102.48031979968937
182.49080272493637;0.17821367453607068;104.57682357621044
205.1916400777768;0.20038246101345392;116.67949415251014
177.00222424672327;0.1728537346159407;99.43935022637015
183.43586714391358;0.1791365890077281;100.58899475468151
199.4904375325482;0.19481488040287911;110.05780383696994
210.79334263573023;0.2058528736677053;121.69543528222492
187.4719684829022;0.1830780942215842;106.5002917407202
195.13238161948124;0.19055896642527465;111.90193434562023
177.47119010654956;0.1733117090884273;98.28244004245147
192.64144420754087;0.18812641035892663;109.10537933577167
200.4161534755644;0.19571889987848087;114.1674934988733
171.45490087774797;0.16743642663842576;91.86125128506336
194.57410077528152;0.19001377028836086;108.08169837951085
202.57584615397926;0.19782797475974537;114.32376946288116
171.75292094486284;0.1677274618602176;97.14922502887539
170.9250444207981;0.16691898869218563;92.923751691958
187.67407245847616;0.18327546138523063;107.30258444261133
171.98369659051812;0.16795282870167785;97.7627128434081
178.15184395650044;0.17397641011376996;97.87474711934337
189.44060986716997;0.18500059557340817;106.05797108821208
185.85821963669747;0.18150216761396237;104.09396642999985
187.45877006022312;0.18306520513693664;112.21411306659235
175.8031960175449;0.1716828086108837;96.07302874610706
195.83744613386986;0.19124750599010729;109.93824106479948
194.07487203255425;0.18952624221929126;111.58135371142282
197.21069393253933;0.19258856829349544;107.28569943267367
200.38537337809404;0.19568884118954497;113.65848000859583
172.53069907036235;0.16848701081090073;98.50586534347558
191.5168470881395;0.18702817098451124;108.11192117234981
198.53007785734454;0.19387702915756302;111.12936430155597
182.43782266627315;0.17816193619753237;101.56517181656965
191.43648416597148;0.18694969156833152;107.77503266092204
186.6137075608857;0.18223994878992744;104.41311420944405
185.35994834274172;0.1810155745534587;103.68054772309065
188.22530733804166;0.1838137766973063;106.1759539192023
200.11690705335985;0.19542666704429673;116.79033994870797
176.02411468712697;0.17189854949914743;99.97246066545895
190.558752338898;0.18609253158095507;107.25282371260018
207.48611444813127;0.2026231586407532;121.88949175121185
185.22947280551972;0.18088815703664035;104.89777043301808
180.08071578529925;0.1758600740090813;101.1437104970829
194.89836864423324;0.19033043812913403;110.47996327319609
196.90821713677533;0.19229318079763216;116.54839095013632
194.675047212653;0.19011235079360644;109.6819064176794
167.49839671197896;0.16357265303904195;91.1219987983235
191.6574428016136;0.18716547148595078;110.2564179332859
173.9256049586519;0.16984922359243348;102.29299880599933
190.3276772749227;0.1858668723387917;109.78458902799325
186.8091035821838;0.18243076521697638;103.22033372956523
165.4837804515237;0.1616052543471911;89.33944946985112
199.4162582109085;0.19474243965909033;115.3699720429885
170.4873023634323;0.16649150621428935;96.23915095161932
161.53693422733667;0.15775091233138347;91.024268232748
203.15321136521447;0.19839180797384226;116.51089953558531
175.88403086482944;0.171761748891435;93.55369560174758
195.00597694959797;0.19043552436484176;111.32802968322372
192.39522327422017;0.18788596022873064;107.96973648922642
197.13491261153985;0.19251456309720688;112.22632424868769
202.46844694249384;0.19772309271727914;115.03839244761761
192.2996140666284;0.1877925918619418;108.12356744886647
176.6394361356199;0.1724994493511913;97.24583395407844
184.11614382859617;0.17980092170761344;104.22756048831597
176.56204349256996;0.17242387059821285;100.97580529656233
202.6113027817713;0.19786260037282352;116.83689204555138
196.28398551128342;0.1916835796008627;111.42289983846699
202.763984541653;0.198011703653958;112.85135914342573
199.78601080234054;0.19510352617416069;113.9458819780019
222.02135958132394;0.21681773396613666;130.8125803554263
189.9259724516942;0.18547458247235762;107.59530045097604
186.67289377258317;0.18229774782478825;107.63231322521614
194.76508037641463;0.1902002738050924;108.1152253196524
173.28584325264953;0.16922445630141555;99.69278585193831
172.37110784144787;0.16833116000141393;96.19386315837139
187.18443647704893;0.1827973012471181;104.34725751459204
185.94642292373885;0.18158830363646372;103.69481932192393
200.09734372382243;0.19540756223029535;114.1882116007194
185.86389481366461;0.18150770977896935;105.26668942329196
210.87107408820086;0.20592878328925865;120.89060613878671
180.7095750947251;0.17647419442844248;100.56002576501365
187.8901242072826;0.18348644942117442;104.17602866714874
184.72389601561432;0.18039442970274835;106.84681407625351
189.00615253207428;0.1845763208321038;103.52895382698665
180.1701422463967;0.17594740453749677;99.54342897839133
190.17376716029932;0.1857165694924798;105.56559484704064
195.63314604265707;0.1910479941822823;110.82443077244578
182.768015644707;0.17848439027803417;102.4384849737622
204.15535765739514;0.19937046646229994;119.9607907087142
193.5806625493678;0.18904361577086698;114.38971799227866
200.65679184921703;0.195953898290251;114.43443750612063
200.62659056617275;0.19592440484977808;115.91222898024827
196.45674562863735;0.19185229065296616;110.545100265563
188.79966184378986;0.18437466976932604;108.72746468371525
191.758577973099;0.1872642363018545;106.83349454838087
173.50508713852903;0.16943856165871976;96.01144087241305
201.57765846920572;0.1968531820988337;113.88613609892586
184.27818031684967;0.1799591604656735;107.17265515072495
188.95626764872634;0.18452760512570932;106.43032216488643
170.52568491766252;0.1665289891774048;91.66013523104967
193.98063248016717;0.18943421140641326;109.68830737098828
200.9780338650819;0.19626761119636904;117.8472597526581
173.5486578952849;0.16948111122586415;94.49106436407023
189.57579692527247;0.1851326141848364;103.38378053725191
184.68038732562195;0.18035194074767769;106.4676288246718
157.6817348046786;0.15398606914519394;82.98134187873701
199.18776721912332;0.1945193039249251;113.53356024213383
189.99864101351716;0.18554554786476285;106.65552632231773
191.04682316244558;0.18656916324457576;108.4948573560106
190.79440023864228;0.1863226564830491;108.39842378405969
176.8092526116057;0.1726652857535212;97.90189454400631
188.54859242278997;0.18412948478788083;110.97304524181972
200.24303036927844;0.19554983434499848;117.3254896556594
193.35105504489613;0.18881938969228138;109.19043425720294
190.7107466411727;0.18624096351677022;109.81882631906238
199.18650719756778;0.19451807343512478;113.99960578142746
173.86764006605432;0.16979261725200617;93.73556934318387
198.86462249368367;0.19420373290398796;116.74493489144345
206.85926398535082;0.20201099998569416;117.96331570059887
188.0641086544691;0.18365635610787998;113.27392146230152
197.38150820081415;0.19275537910235757;111.24561048766326
184.10945358329982;0.17979438826494124;102.75443465617117
171.93345886106496;0.16790376841900875;92.70773686291764
182.3514826640194;0.17807761978908143;103.58960206883829
190.20204184414862;0.1857441814884264;108.40336266545694
179.20209395156257;0.17500204487457283;105.02289884402279
172.42583580434098;0.16838460527767674;96.94604761935975
175.6293104263851;0.1715129984632667;99.46419989145336
183.62802442236494;0.17932424259996577;102.17963982687085
192.5811862955205;0.18806756474171923;108.64660369460115
181.7249051205494;0.17746572765678653;108.67934598337979
194.24247615067216;0.18968991811589078;110.95348812096235
207.80453443338612;0.20293411565760364;116.2607729497352
191.08448152888752;0.18660593899305422;103.93227279797492
193.8451890026564;0.18930194238540665;107.88609237796985
179.21806147932432;0.17501763816340266;101.27054029037785
190.88018628417828;0.18640643191814285;108.92871682201535
190.49859114111513;0.18603378041124524;110.15342113250266
175.8445981953518;0.17172324042514825;95.42480600960187
186.9300511414447;0.18254887806781708;99.4721810037134
191.32381808317143;0.1868396660968471;110.51858887575263
213.66581427337542;0.20865802175134318;121.96728419668007
182.0233608627026;0.177757188342483;102.77464943750331
192.5965208469312;0.18808253988958126;111.95981947624415
186.7032316438021;0.1823273746521505;107.41028274733786
189.10304420360373;0.18467094160508177;102.6897789511072
180.94489319443937;0.1767039972601947;98.14728762159419
179.94774850153533;0.1757302231460306;105.04405595448506
178.2203824772302;0.17404334226292012;98.99806604412274
184.09623151537258;0.17978147608923103;103.72507855451178
166.1131851681733;0.16221990739079423;93.23730766981087
196.24384462249694;0.19164437951415716;106.48398911681872
180.80116620246844;0.17656363886959808;104.61457678699037
192.04544145389633;0.18754437641982064;108.6368563883551
200.48931704190252;0.19579034867373293;115.03632113082608
179.9582062793533;0.17574043581968096;100.01202794628854
185.20889647680886;0.18086806296563365;104.08808501783462
194.45985602086128;0.18990220314537234;111.5537474360759
192.1675231591025;0.18766359683506104;107.48244617131067
195.0951027709311;0.1905225612997374;110.6561335238368
204.85234075880197;0.20005111402226755;117.97750705936288
192.51910285243508;0.18800693637933114;105.90237820183553
198.57560256843763;0.19392148688323987;112.6938144228425
195.90528889997975;0.19131375869138648;113.99310846063487
181.3768191889252;0.17712579998918476;108.18089145570939
198.33795784338506;0.19368941195643072;112.2165428665369
200.04531625176367;0.19535675415211295;114.734425138932
189.76676965920055;0.18531911099531304;109.1624595492892
173.36085775711135;0.16929771265342905;94.59390027488283
200.19518941913512;0.19550311466712414;115.61355264659919
201.70680954248385;0.1969793061938319;113.22901524969123
215.25408670668477;0.21020906904949685;126.05552866003184
199.74523229107245;0.19506370340925044;115.88204082791437
198.8424195089854;0.19418205030174354;108.98144687561067
185.699261348318;0.1813469349104668;98.85197821668707
203.62672362122277;0.19885422228635036;113.51573221714098
184.81935654808683;0.18048765287899105;110.23785108335629
196.99646202130003;0.1923793574426758;109.38367134098822
189.56671847299637;0.18512374850878552;107.17867724996319
185.53342976047534;0.1811849900004642;101.77408310241445
182.252953863385;0.1779814002572119;104.15414284886005
185.6370844320027;0.18128621526562763;102.40174062978868
187.37988423809006;0.18298816820125982;101.83319442684265
174.80371087612934;0.17070674890247006;101.6739640832479
188.51875342904356;0.18410034514555035;105.30042654415048
202.3004321850873;0.1975590158057493;115.10423563631362
199.10772855938782;0.19444114117127717;113.23636115710265
196.27937162168158;0.19167907384929841;109.94321444746477
211.02844522269194;0.2060824660377851;121.91592279807799
197.91641958703863;0.19327775350296741;113.32612162008222
189.93963334191415;0.18548792318546303;107.7574690718456
198.21638502033844;0.19357068849642425;114.2338108844469
183.06912630467284;0.17877844365690707;103.49845124193959
191.2648990116465;0.18678212794106103;106.0909785492075
219.50592394695178;0.2143612538544451;132.15681504541027
187.8926854839679;0.1834889506679374;106.73996274074005
170.38244056759135;0.16638910211678842;97.90248696667726
182.7434830117965;0.17846043262870753;105.59709335108248
201.43347733707404;0.19671238021198637;114.23860783776338
190.27944670871022;0.18581977217647483;105.34442706098342
190.4720606075849;0.18600787168709462;108.13864198258877
173.53107434698364;0.16946393979197621;94.81772115630223
175.66687031517284;0.17154967804216098;97.66195234708016
197.38798866339536;0.19276170767909703;110.51678578752126
215.16031348694324;0.210117493639593;123.95883861199228
202.31535899619257;0.1975735927697193;117.32571697882953
186.3884963411198;0.1820200159581248;107.09372908694257
206.74219311185493;0.20189667296079583;119.75832455281838
193.17644993953388;0.18864887689407606;113.04786718278856
181.02067291003252;0.17677800088870363;102.61308466586968
189.20816203581668;0.18477359573810223;109.67562471586271
178.54109480787986;0.17435653789832017;100.19009369501072
202.36156572092642;0.1976187165243422;114.1274550022389
197.42911701414687;0.1928018720841278;115.22226090870085
188.3777991940286;0.18396269452541855;110.57107821279993
181.71536469412416;0.17745641083410563;100.97876539566185
180.28972415264215;0.1760641837428146;102.87538933125941
187.25511001157852;0.18286631837068215;108.1172815088699
183.6715401323135;0.1793667384104624;101.70901559764764
185.7782585884816;0.18142408065281407;106.40001539297761
190.80563872332004;0.18633363156574223;101.97465169835806
185.53441195031385;0.18118594917022837;106.12527305788208
200.1328727363683;0.19544225853160968;113.00632310035849
186.73873772022694;0.18236204855490912;103.89583388296288
190.56357332339573;0.18609723957362864;105.2572220719037
199.54184305603317;0.1948650811094074;112.24844923053105
181.2140990550942;0.17696689360849044;101.39956191953077
189.5732095770257;0.18513008747756415;103.11972740929724
195.0103136924136;0.19043975946524766;109.49282089283965
188.28605026204983;0.18387309595903303;108.85372362291442
196.7570728060647;0.19214557891217257;110.90683330869149
187.72905046072583;0.18332915084055257;101.47910108461011
203.6907763938045;0.1989167738220747;117.6612903565683
177.17170208070215;0.1730192403131857;97.71488397876651
214.66327938855972;0.20963210877789035;123.0351454719742
183.78179359871885;0.17947440781124888;104.92333626285223
182.46863879257631;0.1781920300708753;105.24560912298763
208.56976056668663;0.2036814068034049;121.49409409955888
185.06504529162768;0.18072758329260516;102.7484116691847
195.8619964307913;0.19127148088944462;110.7593891043361
177.5852010996462;0.17342304794887325;97.93863276776693
191.60689582785614;0.18711610920689076;109.39635134080193
203.5729063755729;0.1988016663823954;113.39031496151362
206.5092712839116;0.20166921023819492;119.93599773865004
208.31701439228473;0.20343458436746556;116.30241334469449
203.68282860139837;0.1989090123060531;116.14338860860228
195.0088837792639;0.1904383630656874;111.64806341543257
195.41717656241778;0.1908370864867361;112.47675200497089
184.52193714936985;0.1801972042474315;103.97051613739761
185.59486693705497;0.18124498724321775;105.58650513144025
200.78879346148182;0.19608280611472834;117.83715128777034
197.25372329584687;0.19263058915610046;109.00251321886626
179.95602635348783;0.17573830698582796;98.93092058186164
187.92119313885397;0.18351679017466208;107.54728556530267
187.96153186124826;0.18355618345825025;108.66234539063274
194.4677272432193;0.18990988988595633;113.63940769956376
174.40014087231245;0.17031263757061763;97.91180062430601
198.70561845125275;0.1940484555188015;107.62361373205322
198.54754528540323;0.1938940871927766;111.55869195700723
194.85343374655537;0.19028655639312048;108.67199725549135
197.64605849936206;0.19301372900328326;117.17374412905357
188.21408698033386;0.18380281931673229;106.20229526090931
207.77215438725767;0.20290249451880632;122.6056861427311
189.83409970491456;0.18538486299308063;108.54554956213569
205.68538336312488;0.20086463219055165;118.67522923314276
195.0100276522411;0.1904394801291417;110.18568301651725
177.58815600179744;0.17342593359550532;100.79986716260478
196.721836400816;0.19211116836017186;111.9824479461484
179.85814202122364;0.1756427168176012;103.73296360301023
200.956837523077;0.1962469116436299;112.16518753004326
194.37736952724816;0.18982164992895328;108.21118515085868
202.8684010842853;0.19811367293387236;113.61170254819338
200.13918337173746;0.19544842126146236;114.53921946699491
194.38549519539845;0.1898295851517563;108.24124949311529
187.17117375528076;0.18278434937039137;107.3755515386367
198.71819923468925;0.19406074144012622;112.67086301600227
215.46254258364908;0.2104126392418448;122.44704454260076
195.07996062643363;0.1905077740492516;109.24460855344661
185.25573355314157;0.1809138022979898;104.749871375646
197.08544274798012;0.19246625268357434;113.81878085712292
210.43533910403264;0.20550326084378187;118.25271492494589
172.54636654334814;0.16850231107748842;95.71379532099523
190.66396220206482;0.18619527558795393;107.44779700760594
189.9213320656398;0.18547005084535137;106.08737259308899
198.27141496773146;0.19362442867942525;111.68164638351821
186.9309576666111;0.1825497633462999;108.34125335900755
205.49147205273732;0.2006752656765013;114.68868150342033
197.52861064179956;0.19289903382988238;111.9267768025359
198.89826301707342;0.19423658497761076;119.07232082056444
201.40962021490452;0.1966890822411177;113.7584336233067
191.6543456476224;0.18716244692150624;104.76877815524021
200.22163461762753;0.19552894005627688;110.31343254946322
186.69071605714706;0.18231515239955767;110.43166791394712
216.90236766286102;0.21181871842076272;122.45850972418772
181.06444007255004;0.17682074225834965;103.75970634621439
191.4957621176007;0.18700758019296942;108.58410168284523
189.24112463771746;0.18480578577902096;102.46635890407669
170.33059133832128;0.16633846810382938;95.45186634453194
199.68769845058577;0.19500751801815017;112.1306197341643
191.2658331457228;0.18678304018136993;104.75641447891506
177.21015179543167;0.17305678886272624;99.08621353303717
184.10391132749984;0.17978897590576157;101.84379753809372
195.41925127236073;0.19083911257066477;108.95758785656784
213.8570701504021;0.20884479506875206;117.99332565830233
193.8463338713758;0.18930306042126543;108.49640592458297
191.75899879882095;0.1872646472644736;108.77340290972279
198.13825762261868;0.19349439220958856;108.23193867714936
201.83491681070217;0.19710441094795134;115.4126416167593
181.3433392570437;0.17709310474320675;103.1008494709462
212.38444506426055;0.20740668463306694;126.53156577023498
188.78585615516806;0.1843611876515313;101.66705965902099
211.00412722284517;0.20605871799105974;119.8625630732194
197.70656351522825;0.1930728159328401;112.05456305408264
174.79835318168548;0.17070151677898973;96.89421925866013
195.1280631754935;0.19055474919481788;111.09861558198642
168.9242624874367;0.1649651000853874;92.5810867227525
192.64445438588376;0.1881293499862146;110.98755376814621
182.2013895799117;0.17793104451163252;101.91922995846956
181.72914000571834;0.1774698632868343;99.08920659754733
195.02559522555637;0.1904546828374574;110.22195026215311
193.6223021551148;0.1890842794483543;107.41013233854987
184.1555140336355;0.17983936917347218;104.37030841391991
211.17992290109228;0.20623039345809793;117.01105031899186
201.28704573179556;0.1965693805974566;118.02180515524573
200.06445174547974;0.19537544115769506;110.5092619063751
191.73937500985394;0.1872454834080605;110.50898291231893
200.04275836086154;0.19535425621177885;114.74971757204351
188.26097931051984;0.18384861260792953;108.86065742076065
183.04421394780513;0.17875411518340345;102.52707079012251
204.05757000906434;0.1992749707119769;115.72505379076058
184.65440089462987;0.18032656337366199;105.17338200449092
192.15038760417443;0.1876468628947016;105.26656669084421
187.99822493240418;0.18359201653555096;110.49899412341527
201.82784970688786;0.19709750947938268;117.87777746688623
195.99164851374474;0.19139809425170384;111.15948142053287
203.17104565030473;0.19840922426787572;109.95308227979505
201.6018853451006;0.19687684115732482;114.69489098518858
186.30072089232513;0.18193429774641126;98.91870071124256
205.13492151569085;0.20032707179266684;118.7494737495538
188.84366880261305;0.1844176453150518;105.35944847304503
186.51593188950972;0.18214446473584933;104.42117162040128
194.10550505379442;0.1895561572790961;113.30574173051045
182.6650185342915;0.17838380716239405;103.81478021236028
179.5649697115488;0.17535641573393437;100.63378935617864
199.00954580986726;0.1943452595799485;111.19770518284903
183.80933809538124;0.17950130673377074;105.29336986238904
193.11993685285523;0.18859368833286644;111.34001135473956
176.88429476698107;0.17273856910837995;99.16750317097109
161.238615524052;0.15745958547270703;88.8649185588665
183.3656453027342;0.17906801299095138;106.04207360580533
174.81300811529772;0.17071582823759543;97.67521333652903
202.87194575475334;0.1981171345261263;115.5676986700355
199.2285980064118;0.19455917774063652;111.32609437587581
176.7380124676875;0.17259571530047607;96.61888609360693
193.05414605216797;0.18852943950407028;108.75671625595743
198.30423467189075;0.19365647917176831;114.1222768986835
192.47670151066302;0.18796552881900686;107.97347793496816
197.16767224685407;0.19254655492856843;108.66905970688768
187.53092922804504;0.18313567307426273;107.80842402892111
181.2322380040614;0.1769846074258412;102.47988055038537
192.60678446464817;0.18809256295375798;110.05911873171235
207.96799596598746;0.20309374606053462;120.65718209942912
194.0221924658618;0.18947479732994316;110.22311203804911
192.85025099630928;0.18833032323858329;105.875896267542
197.6012695831467;0.1929699898272917;111.5691205782553
176.75965920824206;0.17261685469554888;103.12145087299552
184.55054625256872;0.18022514282477414;103.80193370106085
185.55553687793355;0.18120657898235698;103.22880545436178
196.61772743632181;0.19200949944953302;108.45007576343417
210.24197488621502;0.20531442859981935;125.52917115548091
167.59398673935627;0.1636660026751526;93.49126632978327
193.67758158929405;0.18913826327079497;104.985680461999
195.52712244261411;0.19094445551036535;109.42676091073862
189.0005783497408;0.18457087729466876;111.92196261228452
190.98526459326266;0.18650904745435806;108.518302131202
196.18373196665286;0.19158567574868443;110.68661455467051
188.45347882860727;0.1840366004185618;104.51215044700788
184.71989313599704;0.1803905206406221;104.9704524671832
198.16069504947478;0.19351630375925272;108.7225329548429
192.1231581173649;0.18762027159898917;113.70739244852004
199.74017358382463;0.19505876326545374;110.66424961493288
198.0898235469653;0.1934470933075833;112.89659202115408
188.2236256466872;0.18381213442059297;103.17953247865988
202.69918847369914;0.19794842624384681;114.81256350592645
189.41838087680267;0.1849788875750026;108.79912904370345
184.2077476702319;0.17989037858421084;105.24111825405028
187.59936636725385;0.18320250621802134;107.49315221086253
196.83494856397002;0.19222162945700197;111.4902045998067
195.84979888506567;0.19125956922369694;110.25304097565669
202.34206497158968;0.19759967282381805;116.18237302616645
208.27922712365634;0.20339768273794565;114.4479687307278
201.8736112860788;0.19714219852156134;111.40762371382303
195.40459779658903;0.19082480253573147;109.4553402127368
186.47634792772297;0.18210580852316696;104.67610111644888
183.60516320421848;0.17930191719161961;104.79146763452133
186.6550027109238;0.18228027608488653;102.89081330551205
203.48335697122496;0.19871421579221188;120.69938768974697
199.65067213389563;0.19497135950575745;117.9586306467587
193.61708409610995;0.18907918368760737;114.01707280164841
164.09585568696573;0.16024985906930247;88.35320372648955
189.7449174587973;0.18529777095585673;102.73634588912715
194.50001721144892;0.1899414230580556;110.87414394600346
195.75900599977385;0.19117090429665415;112.69734802056577
183.78710807097994;0.17947959772556635;106.72387626974022
193.52962551015233;0.18899377491225813;107.84579753334945
192.89126070665105;0.18837037178383892;109.43071392088729
182.76671031193393;0.17848311553899798;102.92863491290677
194.63354446092583;0.19007182076262288;109.4725919990783
196.62020016833563;0.19201191422689026;112.00747744551525
185.1432831312532;0.18080398743286447;96.0135316571316
208.28526176970806;0.20340357594698052;118.42246668771267
195.52618784952358;0.19094354282180037;107.97971526824564
179.532060007302;0.17532427735088085;100.08053484494754
181.04577727616174;0.1768025168712517;102.25137149682068
199.14470516293179;0.19447725113567557;115.47303233263253
194.03481369061384;0.18948712274474008;113.51394347810152
202.4158306560491;0.19767170962504796;116.93806987799849
179.82858189100915;0.17561384950293862;95.2543937752641
181.727029381055;0.1774678021299365;105.36505781795384
178.2438767374423;0.1740662858764085;96.14280770426608
195.3026835867859;0.1907252769402206;109.79790951512446
186.46159592673362;0.1820914022722008;106.40745376758957
173.99996518511293;0.16992184100108684;99.07842091698996
181.08119555808932;0.1768371050371966;102.66946987804802
185.55279891560423;0.18120390519101975;105.13491526198887
190.14341899801417;0.1856869326152482;105.68638472907378
206.82933200810803;0.201981769539168;118.25038554246439
186.92195574047474;0.18254097240280737;104.65175417876638
197.46215165825387;0.19283413247876355;111.9078264205162
199.51388445052132;0.19483777778371222;116.99402064256059
185.03584284439398;0.1806990652777285;104.72734730516532
219.8114434010696;0.21465961269635703;124.53973395473896
204.15681539396255;0.19937189003316655;117.43657512877769
198.48630477173225;0.19383428200364478;109.10240666369019
172.62346698963847;0.16857760448206882;96.58500640404368
182.10342210398224;0.17783537314842016;100.10074810360497
190.4894446722488;0.18602484831274296;110.35324244690808
204.88651055888076;0.200084482967657;115.20158838512758
196.42508346260067;0.19182137056894596;109.35221777093517
218.28361274864884;0.21316759057485238;124.77754460463746
198.72784433010855;0.19407016047862163;113.61222980945122
195.21063541810463;0.1906353861504928;110.55588792620259
177.59864108471623;0.1734361729342932;100.8512282750717
187.1803005955136;0.18279326230030624;105.15851388594793
202.54458657490474;0.1977974478270554;118.7282455750562
195.26288524649505;0.19068641137353032;109.96312824798378
188.36332613244315;0.183948560676214;106.9272959967762
183.69175640089256;0.17938648086024664;103.7980999981444
190.66399944340222;0.18619531195644748;104.2323468818419
187.84708508201842;0.18344441902540862;105.69452832664122
190.1026711807683;0.18564713982496905;107.3434776977311
195.0328286823275;0.19046174676008545;108.4843829104167
186.04661884632722;0.18168615121711643;104.86209844272565
188.2451045816656;0.1838331099430328;105.45271332133804
178.4706633293346;0.17428775715755332;105.39287827974556
199.80837385886122;0.19512536509654416;113.07778319271755
200.41147715618737;0.19571433316033923;111.58075966033242
191.6508605404471;0.18715904349653037;104.26477797375892
192.76059053413624;0.18824276419349242;104.44281233727416
182.54245072384506;0.17826411203500495;101.80031927359808
174.13865562594827;0.1700572808847151;95.20853374134539
196.26777339049013;0.19166774745165052;109.7433179298711
191.63514821681653;0.1871436994304849;105.73555717877962
190.88784632645618;0.18641391242817987;109.53471075624253
186.93142065694238;0.1825502154852953;109.17626334162681
186.586581460638;0.1822134584576543;106.4720442071698
177.59862222321863;0.17343615451486194;98.72386660454367
187.6451658784988;0.18324723230322149;105.10335477076593
193.69840594864806;0.18915859955922662;105.16579806668646
185.72397218546755;0.18137106658737065;106.44284007391428
213.00158242704714;0.20800935783891322;120.3579308928557
213.53169866927573;0.20852704948171458;121.13144057134794
184.90299224460423;0.18056932836387132;103.86922187581861
197.4131970877412;0.19278632528099726;113.40057658329548
192.08293055392795;0.18758098686907027;106.95126434908848
184.04012061284124;0.17972668028597777;100.79008079025182
169.03158497562833;0.16506990720276205;93.13814861227065
195.14037834701057;0.1905667757295025;108.55184856766216
196.0916452084176;0.1914957472738453;111.59900357281086
179.22920117255555;0.17502851677007378;105.15626180480987
181.27963513270765;0.17703089368428482;100.95002336557197
196.32400657572705;0.19172266267160845;106.37751893566303
196.68656484958044;0.1920767234859184;112.80426059579409
203.8787599814189;0.1991003515443544;112.5726382428911
172.17812070698233;0.16814269600291243;94.85743217683032
215.17622355124718;0.21013303081176482;122.13216877629895
189.1777085201431;0.18474385597670226;105.30541287695233
196.72672589698732;0.19211594325877668;108.49980064808611
216.45320784337625;0.21138008578454712;121.85428532180931
186.00162578590206;0.18164221268154498;105.02675340032958
201.98982927857568;0.19725569265485907;114.96842845873913
192.54730899121162;0.1880344814367301;107.5091376882071
180.9415710942789;0.17670075302175675;101.18673101706516
192.0725698686419;0.1875708690123456;108.17424004755031
204.78882857017996;0.19998909040056637;111.23556585711154
193.17190648052554;0.18864443992238822;108.42612913151028
203.34724695089636;0.19858129585048473;115.12082342133502
204.8774839939504;0.20007566796284218;114.75145009262103
174.651968264585;0.1705585627583838;92.83538813205988
183.5608561978034;0.17925864863066737;100.45429366544235
184.32951760724015;0.18000929453832046;103.7080534764313
190.33097718343745;0.18587009490570064;106.72535311052648
204.82274216752688;0.20002220914797547;113.24472350400762
187.9219985816639;0.18351757673990615;105.0030187721763
186.67347063378753;0.18229831116580814;106.4583319697287
192.18839094471514;0.18768397553194838;109.71193580647073
178.83478569014449;0.17464334540053172;97.91920551351521
207.28205453468743;0.2024238813815307;122.1772078114274
216.2658055211357;0.21119707570423407;126.94377040019589
193.57732999465222;0.18904036132290256;112.23252894175111
178.02611032115772;0.17385362336050558;97.51501919406958
181.45165052907157;0.17719887746979646;100.90942739745165
163.02876882469403;0.15920778205536526;89.55652985717104
187.63481095855443;0.1832371200767133;105.11023010838431
178.85004188171467;0.17465824402511199;103.25524582213629
180.95953821270984;0.17671829903584946;101.45575292474211
196.5089416210615;0.19190326330181787;111.93992543868558
203.92681805671666;0.19914728325851236;117.8176373437075
201.98426366878937;0.19725025748905212;114.06994181024326
201.64328541656062;0.19691727091460998;110.57233950750538
186.82868436130107;0.18244988707158308;102.8081272935629
199.28516673017396;0.1946144206349355;114.64111399901924
199.05843662759088;0.19439300451913172;115.29693137457488
203.4083688805843;0.1986409852349456;108.63755124796847
186.849733714057;0.1824704430801338;102.48268097566752
196.92801285180803;0.19231251255059378;112.7842857402223
191.45358026018172;0.18696638697283371;108.30868413514611
181.96057459526747;0.1776958736281909;101.95627698906702
204.8312830906845;0.2000305498932466;115.0680599436604
190.7019115279632;0.18623233547652657;107.93535942670708
195.39278225027604;0.1908132639162852;108.60976558224975
199.69590172993364;0.19501552903313832;112.86264735004426
197.71254698950304;0.19307865916943656;112.93557352380219
200.71309578883807;0.19600888260628718;112.23926980907709
204.07834453203938;0.1992952583320697;114.47246106000208
193.9204927723804;0.18937548122302775;106.31656376635091
210.19596059927886;0.20526949277273326;119.65941919491995
191.42802282692955;0.1869414285419234;110.74794549508331
200.90117984836002;0.19619255844566408;107.5181733077398
194.9914232375532;0.19042131175542304;107.72048697446849
203.35158408408842;0.1985855313321176;114.05937159132509
175.16350956551508;0.17105811481007333;93.96830630391995
195.46170493647955;0.1908805712270308;110.23735166248467
202.29013825279188;0.19754896313749207;108.69920285923371
180.21205740066824;0.17598833730534008;100.15815938036046
194.09479952234275;0.18954570265853785;112.54844827989362
190.5607725388232;0.18609450443244452;105.25337016454152
213.43813522784035;0.20843567893343784;123.12806917987415
197.86655417026407;0.1932290568068985;114.96390493470172
210.17998636551158;0.2052538929350699;116.62836268705259
184.32674728579443;0.18000658914628362;102.29303179315846
210.35886559052278;0.2054285796782449;120.64074443733595
204.47688266691705;0.19968445572941118;114.70658711436326
208.01727457394884;0.2031418697011219;115.20180846862137
182.54263530447457;0.17826429228952595;104.11873645380354
181.58267289783186;0.17732682900178892;95.5401132495319
191.40850451398885;0.18692236768944223;108.16331937132307
200.9716702460256;0.19626139672463438;112.15295571532157
220.09428846011338;0.21493582857432947;124.36863034307638
203.5876535196188;0.19881606789025275;115.6821830429424
190.35907011608157;0.1858975294102359;105.40905226162133
205.28944161512717;0.20047797032727263;117.36711363551244
174.53071483170737;0.17044015120283923;94.62725436299782
203.83740788479815;0.1990599686374982;114.46556453372695
203.89863873775718;0.199119764392341;114.62578779153066
202.04810571089126;0.19731260323329225;115.20930967351636
198.37408582471693;0.19372469318820013;111.57030207043294
207.0987359534749;0.20224485932956532;116.37060598205649
203.03386843550015;0.19827526214404312;112.89496267634998
202.0246125163475;0.1972896606604956;110.13582009736358
193.0772663404894;0.18855201791063417;107.34838803523627
197.81897679905248;0.19318259453032469;112.91563309106738
213.76323520854675;0.20875315938334643;119.65215986534619
221.0634235534286;0.21588224956389512;128.37824262999973
189.2651501701756;0.1848292482130621;106.36529297104865
210.20682022700495;0.20528009787793453;124.29576413518149
186.09097008464875;0.1817294629732898;102.81527567536679
204.29049535353965;0.19950243686869107;119.23681728278997
194.86370545645667;0.19029658735982097;112.93309888001221
193.50731313194927;0.1889719854804192;112.75461022452774
196.45963402765395;0.1918551113551308;112.29392506649972
190.5773522953826;0.18611069560095958;101.21723681410522
207.63359648216357;0.20276718406461286;124.07714919761383
177.97620766324943;0.17380489029614202;98.52625272522367
187.1552576332185;0.18276880628243994;99.68931226377109
212.77849432952783;0.20779149836867952;116.49564586070161
189.69337926692478;0.18524744069035623;106.06873765214844
200.64807419943895;0.1959453849603896;114.3128858214312
222.54946161556603;0.2173334586089512;128.64733657885364
178.25320642182493;0.1740753968963134;98.26305211464512
176.99478592574258;0.17284647063060798;99.08293739767208
192.2080754711407;0.18770319870228583;110.36578676581324
187.30537667404687;0.1829154069082489;102.23556691124675
190.99756541175304;0.18652105997241508;107.2578639290889
191.6864799868506;0.1871938281121588;107.46862006348617
189.4416287128508;0.18500159053989335;104.53893488814452
189.27023337244594;0.18483421227777924;108.17335026962755
191.53001203004308;0.18704102737308895;106.09012322964023
205.3751471388906;0.20056166712782286;114.85621791658373
195.8448666816309;0.19125475261878017;109.66787150460866
198.8766069403814;0.19421543646521622;115.19681264224691
172.94707095063202;0.1688936239752266;93.48585201149068
206.00812091620347;0.20117980558222995;119.64515593702473
188.33562322556284;0.1839215070562137;104.64269137642253
198.02337341785767;0.19338220060337663;108.93911331919746
202.2253936327194;0.19748573596945254;110.04427353362068
179.59788611940584;0.17538856066348227;97.02951907707264
194.9501826341643;0.19038103772867607;111.47373340851532
180.11500099142643;0.17589355565568987;104.28069468156836
206.31469923382008;0.20147919847052742;116.29221081322044
213.64712214552094;0.2086397677202353;117.39278176569086
204.97745981511304;0.20017330060069632;119.17606617504353
201.35263814356944;0.19663343568707953;119.74675340203574
205.7961256372363;0.20097277894261356;118.13432697744042
203.4014004189142;0.1986341800965959;115.1259032565819
194.4832045380477;0.1899250044316872;110.28835534520701
191.22749571738154;0.1867456012865054;103.72056193299666
170.05707814896022;0.16607136537984396;95.87612818777944
173.8363814862034;0.16976209129512052;102.01240262074006
189.2875741865697;0.18485114666657199;105.25278992198895
193.68391042637037;0.18914444377575232;108.9429671023542
193.70359929536286;0.1891636711868778;110.61913703979293
197.6417126664001;0.19300948502578136;108.06614044976642
179.87269307640435;0.17565692683242612;100.25278206544354
201.67482611332773;0.1969480723762966;109.20359606385996
201.45083379305686;0.1967293298760321;113.92106820224257
188.31470371493958;0.1839010778466207;106.65614532829738
195.68957920949978;0.19110310469677713;110.29154857076745
209.15228712804773;0.2042502803984841;119.72345952581477
205.75494372000037;0.20093256222656286;120.18526801976799
190.68923946825984;0.1862199604182225;111.19538907576833
178.20497794653738;0.1740282987759154;102.4524111053738
185.25582779944247;0.18091389433539304;101.51098250293091
200.29373945063284;0.19559935493225863;113.57526952817706
182.69257089123707;0.1784107137609737;100.4348558915242
182.01149362248321;0.17774559924070626;98.38605766767527
186.39228160848862;0.18202371250828966;102.53546538026121
195.82596657119362;0.19123629547968127;113.0879725056539
179.47421334270743;0.17526778646748772;97.4694341928369
191.5151677047023;0.18702653096162333;110.6409440666801
180.81175127795186;0.17657397585737486;98.77536420414292
202.200213575081;0.19746114606941503;114.06496045820576
191.57141538977186;0.18708146034157408;107.85023071467373
177.87466560227065;0.17370572812721743;98.52019494432051
186.38634973608907;0.18201791966414949;104.71435866250141
199.0990222439888;0.1944326389101453;113.06678288311954
202.94774209824044;0.19819115439281293;113.6172389184651
192.1990763942824;0.1876944105412914;109.68387130809826
187.90286895661922;0.18349889546544845;106.20819491400631
202.43320922233096;0.19768868088118258;114.93567348433591
199.9243418919406;0.19523861512884824;116.52684851050626
193.58839323180487;0.18905116526543445;114.73684532653536
189.95165531248708;0.18549966339110066;104.53723116410035
204.2231086348367;0.19943662952620772;115.11814816269899
184.6472709983278;0.1803196005843045;101.9042461410776
199.95975798851063;0.1952732011606549;111.9059100339683
206.42683402672805;0.2015887051042266;121.74137240737272
187.62595268480078;0.18322846941875076;102.7166046369107
197.6687923300121;0.19303593000977745;115.64570132172204
195.89757913205764;0.19130622962115004;112.23255047576339
172.05079452163938;0.16801835402503845;96.78003645713108
197.18576032439685;0.1925642190667938;110.70199262801991
199.98096309798873;0.19529390927537962;112.34042408949057
199.0672829117728;0.19440164346852812;115.88745201825438
186.8387107419897;0.18245967845897432;100.00122963453467
170.18741408726615;0.16619864656959585;93.03744561915357
181.2044524710285;0.17695747311623877;101.82014545238884
189.9880892445735;0.1855352434029038;105.59272058994715
190.66451016964976;0.1861958107125486;105.83390223133347
194.26241929663078;0.189709393844366;110.31913670591767
195.0881888402267;0.1905158094142839;109.89341432069135
184.61173354706193;0.18028489604205267;103.61639356883431
179.4185327340278;0.17521341087307402;104.74036665251265
187.2094593832532;0.1828217376789582;106.56114952147351
201.0076001236655;0.1962964844957671;111.24478727481777
192.85089952320038;0.18833095656562537;107.61657808148462
191.0769287583666;0.18659856324059237;109.0719101180722
182.5195077012887;0.17824170673953973;105.83597235900021
182.8626215137238;0.1785767788219959;104.71314346471057
179.82735307051706;0.17561264948292682;99.1851588696745
190.89249708181686;0.18641845418146177;104.69234587218922
188.8126469418805;0.18438735052918018;108.13103025937514
186.59638588019578;0.1822230330861287;104.8503303166416
188.08351717329126;0.18367530973954224;107.60360745385269
178.57414653850017;0.17438881497900408;97.51802292752136
191.3410376418245;0.18685648207209424;110.90908497370798
182.82355287075194;0.1785386258503437;99.52484197175126
168.93166383252884;0.16497232796145395;96.85079787137212
182.9099383337333;0.17862298665403642;100.16192915166289
181.10522008255865;0.17686056648687368;95.99478570948305
187.95262680275135;0.18354748711206187;104.45965412971047
202.30191108247047;0.19756046004147507;114.07244686736426
195.48315001674956;0.190901513688232;113.93874727290354
176.2747028221701;0.1721432644747755;102.0428636181903
198.21415577159036;0.1935685114956937;110.50955596669769
193.47868575761285;0.1889440290601688;112.8668891092904
187.78065821124412;0.18337954903441808;107.82518186828919
193.41123040113825;0.18887815468861158;115.58778706919125
196.88895942656893;0.19227437444000872;113.2950845021329
190.37367519915233;0.1859117921866722;109.11377931775553
199.32090105807976;0.194649317439531;110.97994370326718
202.20371124141747;0.19746456175919674;119.6536646154545
189.9745747388658;0.18552204564342364;106.28333518883879
191.61156119213504;0.18712066522669438;112.42571435863913
188.22656099985048;0.18381500097641648;105.56725666602158
183.14592226884662;0.17885343971567053;106.40715183688866
183.0629224354674;0.17877238519088615;102.9005555275122
175.6228358632978;0.17150667564775177;98.7380399385505
179.43272792079415;0.17522727336015054;99.26986837210855
175.03158803418884;0.17092928518963754;95.99229646057185
193.64853875806352;0.1891099011309214;109.28581699803476
184.25108616109947;0.1799327013291987;104.7033945578849
186.39749715837635;0.1820288058187269;100.76370304077186
205.18255209616044;0.20037358603140668;120.516247048527
173.9175547311939;0.16984136204218153;96.88901529590599
183.06706213270382;0.17877642786396858;101.46266860960485
175.26033275799088;0.17115266870897547;99.06460422774428
202.4846516575697;0.19773891763434542;115.59140222031218
173.6610214861435;0.16959084129506202;95.9548167707791
200.91868842913203;0.19620965666907425;111.48418823422878
194.1186000021674;0.1895689453146166;108.96512523483705
207.69685013969374;0.20282895521454467;125.24725506759809
191.57038895874234;0.18708045796752182;108.10126844754437
189.40503223262826;0.18496585178967603;106.3912687111254
178.13958775399374;0.1739644411660095;99.71658991147376
205.71537398933893;0.2008939199114638;115.8598556165179
175.91891166947838;0.17179581217722498;93.31953673961426
206.91575166811225;0.20206616373839087;117.98847453496651
192.4743999490498;0.18796328120024394;113.68897001860752
190.93226242244634;0.18645728752192026;107.88186727756236
187.8596528474244;0.1834566922338129;104.37233953564875
207.6302319285583;0.2027638983677327;119.4167888365351
180.41131096773393;0.17618292086692766;98.22563317905764
192.97528091363623;0.18845242276722288;107.30496220929945
194.7993780841715;0.19023376766032374;108.1394121133408
194.86593616323918;0.19029876578441327;106.07405266648192
190.08614897185944;0.1856310048553315;111.16390985717669
195.38331634333665;0.1908040198665397;111.4876488765582
200.1028866069786;0.19541297520212753;113.27817560978693
180.7824606272568;0.17654537170630547;103.7633711853397
197.7803878952465;0.19314491005395165;112.79385015412153
198.04163854382136;0.19340003764045055;113.28489552662474
182.9877282685606;0.1786989533872662;103.5310947046383
187.69835742431653;0.1832991771721841;105.88632035227106
202.20182693272224;0.19746272161398656;112.88287196281453
197.94238851815663;0.19330311378726234;113.00194099554946
183.99646464609856;0.17968404750595562;102.91443324463673
188.78275367689588;0.18435815788759363;110.50379003917223
193.78271934184326;0.1892409368572688;109.12172441256057
199.2365810050606;0.1945669736377545;114.12064230665922
207.68893434172665;0.20282122494309243;118.82783991512537
190.76818676064948;0.18629705738344676;109.7820346811863
182.32476773435434;0.1780515309905804;105.6793169669183
188.57151997255937;0.1841518749732025;111.44445900962727
188.01418258417155;0.18360760017985503;108.88205753884525
184.77120514792566;0.18044063002727115;104.36687091083724
196.34882572032836;0.19174690011750817;114.4054592714805
188.93138214762897;0.1845033028785439;106.1688923763621
189.74123887720978;0.18529417859102518;109.64246157251789
177.98833334651573;0.17381673178370677;98.09205363472573
193.4200715557856;0.18888678862869687;112.48834910678785
202.89839017041746;0.1981429591507983;119.28732494904008
194.41847009777075;0.18986178720485425;109.01325383510097
181.0923373809399;0.17684798572357413;98.40542391333724
182.42484305339593;0.17814926079433197;100.54917421246319
189.7332079068808;0.1852863358465633;107.59487987391553
200.26511837225956;0.19557140466040973;113.86800476801423
201.89576681225796;0.19716383477759566;113.28379966059757
192.54843467771437;0.18803558073995544;104.81646957941473
184.43099893010375;0.18010839739267945;101.07195209973146
194.283525055104;0.189730004936625;106.85850568272751
177.99763197486095;0.17382581247545015;93.59547236345792
187.20319758231483;0.18281562263897932;105.04495617582124
193.06913623147636;0.18854407835105114;109.14731021412436
193.32282217562894;0.18879181853088764;107.90007461899911
169.0227059815704;0.16506123631012734;97.0411070839575
205.54168458679902;0.20072430135429592;119.52927625658535
189.49282401005297;0.18505158594731735;110.34419103813491
192.90504555534605;0.18838383355014263;108.54251118990776
189.96232310584352;0.18551008115805032;107.49362109555328
199.5112165140276;0.1948351723769801;115.74133236548496
177.97278095432958;0.17380154390071248;102.637016218979
192.7298810432299;0.1882127744562792;109.29799324832656
210.7255021650788;0.20578662320808477;122.19818206762967
185.15252265835505;0.18081301040854986;103.32186011369076
193.77814823420496;0.18923647288496578;108.49450608471656
179.28788479437478;0.17508582499450662;103.87790757539862
179.70836046318954;0.17549644576483353;103.27368431840873
198.8507344113604;0.19419017032359415;112.57226717225453
197.45157335368367;0.1928238021032067;111.68467583172706
170.85957734631984;0.16685505600226547;93.99165723503161
189.82416397932502;0.1853751601360596;104.44452727464892
202.46873414633703;0.19772337318978225;113.85086676719743
182.31739136774584;0.1780443275075643;103.88176025294662
198.43123460699536;0.1937805025458939;116.24897071648054
209.66058948766397;0.20474666942154685;116.5827954226411
178.91569241205684;0.17472235587114926;102.85411331131291
194.04874086659223;0.18950072350253147;111.63945882602961
196.0458758699072;0.19145105065420626;110.580552072894
180.62756205122946;0.17639410356565377;102.10878982501853
185.6259970130733;0.18127538770807938;107.06344547213568
193.11696562848022;0.1885907867465627;109.42054087603071
185.19085302976944;0.18085044241188422;109.74081407199486
197.94858603122026;0.19330916604611353;113.95285565139955
202.0300611158757;0.19729498155847236;113.52495182932998
169.34611564080853;0.16537706605547708;91.79680516304718
183.48432055283175;0.17918390678987475;101.36949454915283
196.72902727989913;0.1921181907030265;110.79454816104646
183.68411732525107;0.1793790208254405;102.48236065019039
187.07154200278535;0.18268705273709507;103.53393826781522
194.40466161824642;0.18984830236156877;111.12702361193614
188.55383807807928;0.1841346074981243;106.77824622754353
190.14329712654356;0.1856868136001402;109.3263492654948
205.5297283908804;0.20071262538171913;122.01553503647757
173.31032413555658;0.16924836341362948;96.2816927837131
199.96654960540707;0.19527983359903034;115.38524649114825
205.3057277290139;0.20049387473536515;117.4586383433544
186.10165350805838;0.18173989600396326;103.14631456001709
188.29623318081536;0.18388304021564;103.48597992896272
189.88941639150931;0.18543888319483331;106.63863394427206
191.5157680213628;0.1870271172083621;104.06330149418366
199.10417167515928;0.19443766765152273;114.0262198034021
198.44939538754176;0.19379823768314625;114.29256584616569
199.21628162264992;0.19454715002211906;113.23564409923135
175.46906249789245;0.1713565063455981;100.49531911991957
182.12420603503;0.17785566995608398;99.63130595909684
186.63616626663503;0.18226188111976077;102.81684489903672
177.28675681930707;0.17313159845635456;100.58761988131009
194.08061108416965;0.18953184676188442;109.08665468625881
176.78131264378902;0.17263800062870022;98.10520776298462
181.2263500160417;0.17697885743754072;99.78418327832178
190.97168680375574;0.18649578789429272;106.55369581585866
196.57863374282942;0.19197132201448186;111.98596421289696
186.41737009888368;0.1820482129871911;104.18741809758158
188.04461625935915;0.18363732056578042;104.40766197075281
189.00287846746932;0.184573123503388;107.53196523240868
189.464819335627;0.18502423763244824;103.70200757771698
176.2436187432385;0.17211290892894385;96.24106058374416
200.94165834617363;0.19623208822868518;115.92916004453711
188.8645766501687;0.18443806313493036;106.03634283915154
197.58933296861292;0.19295833297716106;112.08574311099711
179.0260973478419;0.17483017319125185;101.2712431134926
192.76486738692742;0.1882469408075463;109.14864443838232
198.64468044776152;0.1939889457497671;117.12760543152666
188.81968215618764;0.184394220855652;107.90878856640592
182.87068711525896;0.17858465538599508;105.5629068593931
182.1789403495874;0.17790912143514395;97.75970368585165
182.61463522714095;0.17833460471400484;102.30574731367905
170.13721482785186;0.16614962385532409;97.06327773774007
176.2774259450204;0.172145923774434;94.75009925173887
197.91621226469323;0.19327755103973948;114.89742026085204
185.67235930989398;0.18132066338856834;105.17789621348341
178.18399766704798;0.17400781022172654;105.51735290664632
191.0754899731379;0.18659715817689249;105.55675453074471
188.62241764567523;0.18420157973210471;106.8517353115234
192.2342393815677;0.1877287493960622;111.24491209370034
188.89479004874235;0.18446756840697495;108.98757544704777
190.7756721340229;0.18630436731838174;105.93155447523581
188.21871798064169;0.1838073417779704;104.67067258029928
178.6313299805517;0.17444465818413252;99.77861647855273
193.31440948170726;0.18878360300947974;109.96298857520875
180.4726000774566;0.17624277351314122;102.66134792679065
206.50191834804141;0.2016620296367592;117.04789079260898
184.30907846155867;0.1799893344351159;105.37099862678605
181.12572882572113;0.1768805945563683;96.81188641790615
200.5276448473462;0.19582777817123653;110.1657744978796
178.68681688335764;0.17449884461265394;97.97075762062565
183.28732763449972;0.17899153089306613;103.10024943697725
197.537164024244;0.19290738674242577;115.89728132590527
174.07174704831897;0.169991940476874;96.86326710788173
183.5108574738816;0.1792098217518375;101.1640324071113
175.66279104528536;0.17154569438016148;100.31328952953284
186.836841894046;0.18245785341215429;106.36849204017837
187.96050400763772;0.18355517969495871;101.2211073851639
194.58655565868025;0.19002593326042994;108.65354152393878
176.85271893211666;0.17270773333214517;105.75587288458351
175.12349146425387;0.17101903463306042;96.96832865048387
181.13579948794953;0.1768904291874507;100.06854450804396
190.62422840744435;0.18615647305414487;105.733492378191
181.50607183777024;0.1772520232790725;102.21027008225349
168.1985948071047;0.1642564402413132;93.52157897725061
185.63677564402866;0.18128591371487174;107.13497403708523
199.240793716494;0.19457108761376368;108.79078075947815
165.49871906102112;0.16161984283302844;91.45947148959117
204.0148143949282;0.19923321718254708;118.3636527790279
192.18350492387543;0.1876792040272221;109.55349191471947
196.64302044658402;0.1920341996548672;110.37774726723393
182.4452654869692;0.17816920457711835;101.11916626494083
184.5113003180416;0.1801868167168375;102.2913949073394
190.40418287929407;0.18594158484306061;113.2141553273892
172.40428795651107;0.16836356245753034;92.46145153888351
191.34835320085645;0.18686362617271138;112.4811059441697
193.8192038773554;0.18927656628647987;110.84978682875088
192.66464999929116;0.18814907226493277;111.7003882742028
198.12334307905797;0.19347982722564255;114.1905593012211
179.12077064413242;0.17492262758216057;99.75792881239286
190.18563287413204;0.18572815710364457;103.91167749385572
211.48340532685322;0.2065267630145051;120.3990279216047
192.70161934980675;0.18818517514629565;106.21791353199022
181.71826291593027;0.17745924112883815;101.52909612367299
190.9551272699189;0.18647961647453018;112.58359882601805
190.5574293728951;0.18609123962196786;110.12170297480255
193.59225666931948;0.1890549381536323;109.52093915188425
176.74522311226664;0.1726027569455729;95.49587689808685
191.13975185421725;0.18665991392013404;106.32002194196905
197.31897596608874;0.19269431246688354;112.73667730551317
184.17672031617317;0.17986007843376287;98.96684473428256
198.51320677019837;0.19386055348652184;111.70417319929838
186.53740513712842;0.18216543470422697;104.26680752633742
182.88702140239647;0.1786006068382778;102.9861039809772
197.74051905209126;0.19310597563680787;115.85742894071875
176.3292893255588;0.172196571606991;96.70223701198488
189.61799293815602;0.185173821228668;106.60034857771896
178.32184288802262;0.17414242469533459;95.29613758508044
103.53271512958919;0.10110616711873945;61.592661964889146
10.234647441421451;0.009994772892013136;10.026785959741039
